<svg width="24" height="24" viewBox="0 0 24 24" fill="none" xmlns="http://www.w3.org/2000/svg">
<mask id="mask0" mask-type="alpha" maskUnits="userSpaceOnUse" x="0" y="0" width="24" height="24">
<path d="M0 0H24V24H0V0Z" fill="#333333"/>
</mask>
<g mask="url(#mask0)">
<path d="M9.29446 17.2946C8.90519 16.9053 8.90484 16.2743 9.29369 15.8846L12.465 12.7063C12.8545 12.316 12.8545 11.684 12.465 11.2937L9.29369 8.11538C8.90484 7.72569 8.90519 7.09466 9.29446 6.70538C9.68403 6.31581 10.3157 6.31581 10.7052 6.70538L15.2927 11.2929C15.6833 11.6834 15.6833 12.3166 15.2927 12.7071L10.7052 17.2946C10.3157 17.6842 9.68403 17.6842 9.29446 17.2946Z" fill="#333333"/>
</g>
</svg>
