<svg width="8" height="5" viewBox="0 0 8 5" fill="none" xmlns="http://www.w3.org/2000/svg">
<path d="M1.41421 5C0.523309 5 0.077142 3.92286 0.707107 3.29289L3.29289 0.707106C3.68342 0.316582 4.31658 0.316583 4.70711 0.707107L7.2929 3.29289C7.92286 3.92286 7.47669 5 6.58579 5H1.41421Z" fill="#FD7C4B"/>
</svg>
