<svg width="200" height="80" viewBox="0 0 200 80" fill="none" xmlns="http://www.w3.org/2000/svg">
<path fill-rule="evenodd" clip-rule="evenodd" d="M86.6713 36.6065C87.0774 35.6537 97.3634 23.6806 100.605 13.0743C101.284 10.8484 102.401 3.60054 98.6209 4.14726C94.0207 4.81894 89.1627 14.3005 87.4601 18.1353C84.5078 24.8443 82.6099 30.3974 83.5003 37.5828C81.2307 39.539 78.7281 41.2074 76.0494 42.5501C65.8961 47.7829 65.6696 41.3239 69.9262 33.4434C70.9259 31.5845 72.9253 27.1952 75.2527 26.9843C76.2993 28.1558 76.0337 29.3274 76.354 31.1003C76.376 31.438 76.514 31.7578 76.7447 32.0055C76.9754 32.2531 77.2846 32.4135 77.6199 32.4594C77.9552 32.5054 78.2961 32.4341 78.5849 32.2576C78.8737 32.081 79.0926 31.8102 79.2047 31.4908C79.931 29.6086 78.2675 24.6413 76.5414 24.1961C72.73 23.2198 68.411 31.3815 67.3254 34.1853C65.7633 38.2701 62.8892 47.9391 71.1836 45.5492C76.1431 44.1199 80.4543 41.0818 84.2032 38.7153C86.0855 39.5588 86.9134 41.4801 90.4514 41.9409C95.3796 42.5735 102.167 39.9258 106.236 37.5125C108.056 36.4347 110.875 34.4431 112.882 33.8807C112.101 35.4896 110.289 37.3094 111.008 39.4104C115.499 40.4882 128.776 32.3265 133.657 30.6629C133.103 32.1391 132.095 33.7167 132.666 35.5834C136.649 36.2004 146.068 28.1715 151.84 27.7732C151.949 29.7101 151.059 29.4914 152.011 31.4908C156.393 32.3187 165.656 26.4298 169.264 24.5475C166.507 28.9056 166.765 31.5299 173.169 28.9525L183.088 24.3445C184.104 25.6566 184.728 25.9065 186.915 25.7659C190.039 25.5707 194.827 23.8837 197.647 22.4622L198.662 21.8296C198.709 21.8296 198.779 21.7202 198.818 21.6968C198.857 21.6734 198.943 21.6421 198.966 21.5484C198.99 21.4547 199.068 21.4469 199.115 21.4C196.1 22.3294 189.922 25.7972 186.47 24.9693C182.698 24.0633 187.251 17.2997 192.211 17.5027L192.835 19.3069L194.929 18.9007C194.929 14.0818 187.259 17.5418 184.947 19.549C181.214 22.8137 185.338 22.0326 179.972 24.6491C178.824 25.2036 177.629 25.7972 176.489 26.3595C174.645 27.2655 171.186 29.3118 168.96 28.8666C168.272 27.0468 170.584 24.5319 171.724 23.3057C172.865 22.0795 172.787 23.087 172.904 21.4C169.327 22.5559 166.343 24.7037 163.149 26.3439C147.193 34.5368 154.698 28.0075 153.269 26.5782C150.059 25.1489 138.367 33.3575 134.11 34.1385C134.415 32.061 136.852 29.3821 135.282 28.9447C135.214 28.9182 135.143 28.8973 135.071 28.8822C131.947 28.2964 117.756 37.778 113.374 37.4734C112.734 35.4428 118.724 31.2253 114.936 31.5377C113.897 31.8104 112.903 32.2313 111.984 32.7873C110.742 33.4824 109.641 34.076 108.509 34.7555C101.964 38.6762 92.0525 44.3933 86.6713 36.6065ZM85.8434 34.7008C85.2186 30.2334 88.491 21.6109 89.9359 18.0182C90.8952 15.4741 92.052 13.009 93.3959 10.6454C94.0656 9.50811 94.8508 8.44289 95.7389 7.4666C96.6761 6.37317 97.5899 5.71711 99.3785 6.05295C102.612 11.7544 90.0218 31.4127 85.8434 34.7008Z" fill="white"/>
<path d="M86.6713 36.6065C87.0774 35.6537 97.3634 23.6806 100.605 13.0743C101.284 10.8484 102.401 3.60054 98.6209 4.14726C94.0207 4.81894 89.1627 14.3005 87.4601 18.1353C84.5078 24.8443 82.6099 30.3974 83.5003 37.5828C81.2307 39.539 78.7281 41.2074 76.0494 42.5501C65.8961 47.7829 65.6696 41.3239 69.9262 33.4434C70.9259 31.5845 72.9253 27.1952 75.2527 26.9843C76.2993 28.1558 76.0337 29.3274 76.354 31.1003C76.376 31.438 76.514 31.7578 76.7447 32.0055C76.9754 32.2531 77.2846 32.4135 77.6199 32.4594C77.9552 32.5054 78.2961 32.4341 78.5849 32.2576C78.8737 32.081 79.0926 31.8102 79.2047 31.4908C79.931 29.6086 78.2675 24.6413 76.5414 24.1961C72.73 23.2198 68.411 31.3815 67.3254 34.1853C65.7633 38.2701 62.8892 47.9391 71.1836 45.5492C76.1431 44.1199 80.4543 41.0818 84.2032 38.7153C86.0855 39.5588 86.9134 41.4801 90.4514 41.9409C95.3796 42.5735 102.167 39.9258 106.236 37.5125C108.056 36.4347 110.875 34.4431 112.882 33.8807C112.101 35.4896 110.289 37.3094 111.008 39.4104C115.499 40.4882 128.776 32.3265 133.657 30.6629C133.103 32.1391 132.095 33.7167 132.666 35.5834C136.649 36.2004 146.068 28.1715 151.84 27.7732C151.949 29.7101 151.059 29.4914 152.011 31.4908C156.393 32.3187 165.656 26.4298 169.264 24.5475C166.507 28.9056 166.765 31.5299 173.169 28.9525L183.088 24.3445C184.104 25.6566 184.728 25.9065 186.915 25.7659C190.039 25.5707 194.827 23.8837 197.647 22.4622L198.662 21.8296C198.709 21.8296 198.779 21.7202 198.818 21.6968C198.857 21.6734 198.943 21.6421 198.966 21.5484C198.99 21.4547 199.068 21.4469 199.115 21.4C196.1 22.3294 189.922 25.7972 186.47 24.9693C182.698 24.0633 187.251 17.2997 192.211 17.5027L192.835 19.3069L194.929 18.9007C194.929 14.0818 187.259 17.5418 184.947 19.549C181.214 22.8137 185.338 22.0326 179.972 24.6491C178.824 25.2036 177.629 25.7972 176.489 26.3595C174.645 27.2655 171.186 29.3118 168.96 28.8666C168.272 27.0468 170.584 24.5319 171.724 23.3057C172.865 22.0795 172.787 23.087 172.904 21.4C169.327 22.5559 166.343 24.7037 163.149 26.3439C147.193 34.5368 154.698 28.0075 153.269 26.5782C150.059 25.1489 138.367 33.3575 134.11 34.1385C134.415 32.061 136.852 29.3821 135.282 28.9447C135.214 28.9182 135.143 28.8973 135.071 28.8822C131.947 28.2964 117.756 37.778 113.374 37.4734C112.734 35.4428 118.724 31.2253 114.936 31.5377C113.897 31.8104 112.903 32.2313 111.984 32.7873C110.742 33.4824 109.641 34.076 108.509 34.7555C101.964 38.6762 92.0525 44.3933 86.6713 36.6065ZM85.8434 34.7008C85.2186 30.2334 88.491 21.6109 89.9359 18.0182C90.8952 15.4741 92.052 13.009 93.3959 10.6454C94.0656 9.50811 94.8508 8.44289 95.7389 7.4666C96.6761 6.37317 97.5899 5.71711 99.3785 6.05295C102.612 11.7544 90.0218 31.4127 85.8434 34.7008Z" fill="white"/>
<path fill-rule="evenodd" clip-rule="evenodd" d="M115.296 30.7254C116.281 30.409 117.127 29.7638 117.693 28.8978C118.092 28.398 119.302 26.8593 118.474 25.9924C116.553 24.1258 115.35 29.015 115.296 30.7254Z" fill="white"/>
<path d="M115.296 30.7254C116.281 30.409 117.127 29.7638 117.693 28.8978C118.092 28.398 119.302 26.8593 118.474 25.9924C116.553 24.1258 115.35 29.015 115.296 30.7254Z" fill="white"/>
<path fill-rule="evenodd" clip-rule="evenodd" d="M12.4274 79.3283C11.9978 59.8028 23.4086 30.905 31.3125 16.9169C33.6556 12.7463 33.0073 12.84 36.475 11.7622C56.3208 5.59994 87.1711 0.234325 86.8197 0.226515C69.1061 -0.0624627 28.3134 9.19264 13.185 15.7298C7.89748 18.0104 0.540264 22.0482 0.00135903 27.9137C-0.0372693 30.1059 0.748781 32.2327 2.20384 33.8729C2.54749 29.6163 3.97676 27.945 6.43697 26.1877C8.73035 24.5475 11.1193 23.0453 13.5911 21.689C16.4887 20.0801 26.314 14.9019 29.438 14.3864L21.9012 28.9447C18.1132 36.4112 7.84281 63.8173 9.48296 71.1667C10.0219 73.5097 10.0687 75.4389 11.17 77.6804L12.4274 79.3283Z" fill="white"/>
<path d="M12.4274 79.3283C11.9978 59.8028 23.4086 30.905 31.3125 16.9169C33.6556 12.7463 33.0073 12.84 36.475 11.7622C56.3208 5.59994 87.1711 0.234325 86.8197 0.226515C69.1061 -0.0624627 28.3134 9.19264 13.185 15.7298C7.89748 18.0104 0.540264 22.0482 0.00135903 27.9137C-0.0372693 30.1059 0.748781 32.2327 2.20384 33.8729C2.54749 29.6163 3.97676 27.945 6.43697 26.1877C8.73035 24.5475 11.1193 23.0453 13.5911 21.689C16.4887 20.0801 26.314 14.9019 29.438 14.3864L21.9012 28.9447C18.1132 36.4112 7.84281 63.8173 9.48296 71.1667C10.0219 73.5097 10.0687 75.4389 11.17 77.6804L12.4274 79.3283Z" fill="white"/>
<path fill-rule="evenodd" clip-rule="evenodd" d="M58.9138 42.5579C58.8357 44.5807 56.8363 45.5804 55.1415 46.5723C44.6523 52.7034 29.0553 53.0079 18.6678 62.4817C18.1679 62.9347 18.1679 63.0909 17.7383 63.4268C19.9252 62.6458 22.9946 59.3186 32.7496 56.1711C38.4198 54.3435 44.3399 52.7658 49.932 50.8445C52.5995 49.9832 55.1577 48.8142 57.5548 47.3612C59.1168 46.3615 63.4047 42.9328 60.1244 40.9412C55.8131 38.3247 45.285 39.4572 39.5366 38.7621C39.9662 36.4191 61.5849 31.2565 64.1466 30.6629C66.9661 29.9991 66.4897 27.6013 64.5137 27.5388C62.7408 27.4842 55.7116 29.6788 53.6497 30.288C49.4478 31.483 36.3657 35.5209 35.8971 39.0511C35.2254 43.9637 54.7744 40.0118 58.9138 42.5579Z" fill="white"/>
<path d="M58.9138 42.5579C58.8357 44.5807 56.8363 45.5804 55.1415 46.5723C44.6523 52.7034 29.0553 53.0079 18.6678 62.4817C18.1679 62.9347 18.1679 63.0909 17.7383 63.4268C19.9252 62.6458 22.9946 59.3186 32.7496 56.1711C38.4198 54.3435 44.3399 52.7658 49.932 50.8445C52.5995 49.9832 55.1577 48.8142 57.5548 47.3612C59.1168 46.3615 63.4047 42.9328 60.1244 40.9412C55.8131 38.3247 45.285 39.4572 39.5366 38.7621C39.9662 36.4191 61.5849 31.2565 64.1466 30.6629C66.9661 29.9991 66.4897 27.6013 64.5137 27.5388C62.7408 27.4842 55.7116 29.6788 53.6497 30.288C49.4478 31.483 36.3657 35.5209 35.8971 39.0511C35.2254 43.9637 54.7744 40.0118 58.9138 42.5579Z" fill="white"/>
</svg>
