<svg width="115" height="24" viewBox="0 0 115 24" fill="none" xmlns="http://www.w3.org/2000/svg">
<mask id="mask0" mask-type="alpha" maskUnits="userSpaceOnUse" x="0" y="0" width="115" height="24">
<rect width="115" height="24" fill="#C4C4C4"/>
</mask>
<g mask="url(#mask0)">
<path d="M50.5526 15.3638V11.198C50.5526 9.62608 49.5501 8.56796 47.9365 8.55407C47.477 8.52436 47.0179 8.61845 46.607 8.82654C46.1962 9.03463 45.8488 9.3491 45.6008 9.73717C45.3749 9.36062 45.0516 9.05198 44.665 8.84376C44.2784 8.63554 43.8428 8.53547 43.4041 8.55407C43.022 8.53562 42.6418 8.61711 42.3009 8.79049C41.9599 8.96388 41.6701 9.22317 41.46 9.54277V8.7096H40.0131V15.3638H41.4739V11.6785C41.4739 10.5231 42.1126 9.91214 43.1013 9.91214C44.09 9.91214 44.5483 10.537 44.5483 11.6646V15.3638H46.0008V11.6785C46.0008 10.5231 46.6673 9.91214 47.6282 9.91214C48.5891 9.91214 49.089 10.537 49.089 11.6646V15.3638H50.5526ZM72.1678 8.71515H69.8044V6.69888H68.3436V8.71515H66.9938V10.0371H68.3436V13.0671C68.3436 14.6112 68.9407 15.5305 70.6515 15.5305C71.2904 15.5325 71.917 15.3545 72.4594 15.0167L72.0429 13.778C71.6547 14.0093 71.2142 14.1383 70.7626 14.153C70.0405 14.153 69.8016 13.7086 69.8016 13.0421V10.0371H72.165L72.1678 8.71515ZM84.5071 8.54852C84.1543 8.53823 83.8052 8.62337 83.4968 8.79494C83.1884 8.96651 82.9319 9.21816 82.7546 9.52333V8.71515H81.3216V15.3638H82.7685V11.6368C82.7685 10.5259 83.2406 9.92602 84.1877 9.92602C84.4975 9.92154 84.8051 9.97817 85.0931 10.0927L85.5374 8.72904C85.2067 8.61077 84.8583 8.54972 84.5071 8.54852ZM65.8524 9.24283C65.0332 8.75613 64.0914 8.51512 63.1391 8.54852C61.4561 8.54852 60.3618 9.35669 60.3618 10.6759C60.3618 11.7618 61.1672 12.4283 62.6558 12.6366L63.3362 12.7338C64.1278 12.8449 64.5055 13.0532 64.5055 13.4281C64.5055 13.9419 63.9778 14.2363 62.9891 14.2363C62.1914 14.2616 61.4086 14.017 60.7673 13.542L60.1091 14.6668C60.9517 15.2559 61.9613 15.5587 62.9891 15.5305C64.9082 15.5305 66.0218 14.6251 66.0218 13.3615C66.0218 12.1922 65.1442 11.5813 63.7001 11.373L63.0196 11.2758C62.3948 11.1924 61.8921 11.0675 61.8921 10.6231C61.8921 10.1371 62.3642 9.84549 63.1585 9.84549C63.8862 9.85624 64.5993 10.0522 65.2303 10.4148L65.8524 9.24283ZM104.6 8.54852C104.248 8.53823 103.898 8.62337 103.59 8.79494C103.282 8.96651 103.025 9.21816 102.848 9.52333V8.71515H101.415V15.3638H102.862V11.6368C102.862 10.5259 103.334 9.92602 104.281 9.92602C104.591 9.92154 104.898 9.97817 105.186 10.0927L105.631 8.72904C105.3 8.61077 104.952 8.54972 104.6 8.54852ZM85.9679 12.0395C85.9679 14.0558 87.3732 15.5305 89.5144 15.5305C90.3827 15.5734 91.2356 15.2901 91.9056 14.7362L91.2113 13.567C90.7111 13.9479 90.1014 14.1573 89.4727 14.1641C88.3174 14.1641 87.4704 13.3142 87.4704 12.0367C87.4704 10.7592 88.3202 9.92325 89.4727 9.90936C90.1014 9.91616 90.7111 10.1256 91.2113 10.5065L91.9056 9.33725C91.2356 8.78333 90.3827 8.50001 89.5144 8.54296C87.3732 8.54296 85.9679 10.0177 85.9679 12.0339V12.0395ZM99.5152 12.0395V8.70682H98.0683V9.51499C97.8216 9.19666 97.5022 8.94204 97.1369 8.77244C96.7717 8.60284 96.3711 8.52321 95.9687 8.54019C94.1052 8.54019 92.636 10.001 92.636 12.0312C92.636 14.0613 94.0968 15.5221 95.9687 15.5221C96.3711 15.5391 96.7717 15.4595 97.1369 15.2899C97.5022 15.1203 97.8216 14.8657 98.0683 14.5473V15.3527H99.5152V12.0395ZM94.1329 12.0395C94.1329 10.8703 94.8967 9.91214 96.1492 9.91214C97.3462 9.91214 98.1516 10.8314 98.1516 12.0395C98.1516 13.2476 97.3462 14.1669 96.1492 14.1669C94.8967 14.1669 94.1329 13.2059 94.1329 12.0395ZM76.6753 8.54852C74.7312 8.54852 73.3648 9.96768 73.3648 12.0395C73.3648 14.153 74.784 15.5305 76.7725 15.5305C77.7654 15.5653 78.7363 15.2331 79.4997 14.5973L78.7915 13.5253C78.2392 13.9673 77.5548 14.2117 76.8475 14.2196C75.9143 14.2196 75.0673 13.7892 74.859 12.5922H79.7969C79.8108 12.4116 79.8247 12.2311 79.8247 12.0367C79.8247 9.96491 78.5305 8.54574 76.6669 8.54574L76.6753 8.54852ZM76.6475 9.84271C77.5807 9.84271 78.1778 10.4259 78.3305 11.4563H74.884C75.0367 10.4954 75.6199 9.84271 76.6503 9.84271H76.6475ZM112.932 12.0395V6.04346H111.485V9.52055C111.238 9.20221 110.919 8.94759 110.554 8.778C110.188 8.6084 109.788 8.52876 109.385 8.54574C107.522 8.54574 106.053 10.0066 106.053 12.0367C106.053 14.0669 107.514 15.5277 109.385 15.5277C109.788 15.5447 110.188 15.465 110.554 15.2954C110.919 15.1258 111.238 14.8712 111.485 14.5529V15.3583H112.932V12.0395ZM114.623 14.7501C114.681 14.7498 114.737 14.7612 114.79 14.7834C114.841 14.8051 114.887 14.8362 114.926 14.875C114.965 14.9132 114.996 14.9585 115.018 15.0084C115.04 15.0601 115.052 15.1159 115.052 15.1722C115.052 15.2286 115.04 15.2843 115.018 15.3361C114.996 15.3859 114.965 15.4312 114.926 15.4694C114.887 15.5081 114.841 15.5392 114.79 15.561C114.737 15.5835 114.681 15.5948 114.623 15.5944C114.539 15.5954 114.456 15.5715 114.384 15.5255C114.313 15.4796 114.257 15.4137 114.223 15.3361C114.201 15.2843 114.19 15.2285 114.19 15.1722C114.19 15.1159 114.201 15.0601 114.223 15.0084C114.267 14.9064 114.349 14.8256 114.451 14.7834C114.507 14.76 114.568 14.7486 114.629 14.7501H114.623ZM114.623 15.4999C114.667 15.5006 114.711 15.4921 114.751 15.4749C114.789 15.4584 114.824 15.4348 114.854 15.4055C114.916 15.3436 114.95 15.2597 114.95 15.1722C114.95 15.0848 114.916 15.0009 114.854 14.9389C114.824 14.9095 114.789 14.8859 114.751 14.8695C114.711 14.8525 114.667 14.844 114.623 14.8445C114.579 14.8439 114.534 14.8524 114.493 14.8695C114.443 14.8906 114.4 14.9236 114.366 14.9654C114.332 15.0073 114.309 15.0568 114.298 15.1096C114.288 15.1624 114.291 15.217 114.306 15.2686C114.322 15.3202 114.349 15.3672 114.387 15.4055C114.418 15.4352 114.453 15.4588 114.493 15.4749C114.536 15.4929 114.582 15.5014 114.629 15.4999H114.623ZM114.648 14.9722C114.69 14.9693 114.731 14.9811 114.765 15.0056C114.779 15.0165 114.79 15.0305 114.797 15.0464C114.804 15.0623 114.807 15.0797 114.807 15.0972C114.807 15.1123 114.804 15.1272 114.799 15.1411C114.793 15.155 114.784 15.1675 114.773 15.1778C114.748 15.2004 114.716 15.2141 114.682 15.2166L114.809 15.3638H114.709L114.59 15.2166H114.551V15.3638H114.468V14.975L114.648 14.9722ZM114.551 15.0445V15.15H114.648C114.666 15.155 114.684 15.155 114.701 15.15C114.707 15.1457 114.712 15.1399 114.716 15.1331C114.719 15.1263 114.721 15.1187 114.721 15.1111C114.721 15.1035 114.719 15.0959 114.716 15.0891C114.712 15.0823 114.707 15.0765 114.701 15.0722C114.684 15.0672 114.666 15.0672 114.648 15.0722L114.551 15.0445ZM107.555 12.0395C107.555 10.8703 108.319 9.91214 109.572 9.91214C110.769 9.91214 111.574 10.8314 111.574 12.0395C111.574 13.2476 110.769 14.1669 109.572 14.1669C108.319 14.1669 107.555 13.2059 107.555 12.0395ZM58.7038 12.0395V8.70682H57.2569V9.51499C57.0101 9.19936 56.6917 8.94706 56.3281 8.77899C55.9644 8.61091 55.5659 8.53191 55.1656 8.54852C53.3021 8.54852 51.833 10.0093 51.833 12.0395C51.833 14.0697 53.2938 15.5305 55.1656 15.5305C55.568 15.5475 55.9686 15.4678 56.3339 15.2982C56.6992 15.1286 57.0185 14.874 57.2652 14.5557V15.3611H58.7122L58.7038 12.0395ZM53.3215 12.0395C53.3215 10.8703 54.0853 9.91214 55.3378 9.91214C56.5348 9.91214 57.3402 10.8314 57.3402 12.0395C57.3402 13.2476 56.5348 14.1669 55.3378 14.1669C54.0853 14.1669 53.3215 13.2087 53.3215 12.0395Z" fill="#333333"/>
<path d="M21.55 4.13525H12.8018V19.8572H21.55V4.13525Z" fill="#FF5F00"/>
<path d="M13.3572 12.0006C13.356 10.4867 13.6992 8.99235 14.3608 7.63069C15.0224 6.26902 15.985 5.07569 17.1759 4.14099C15.7009 2.98184 13.9296 2.26102 12.0644 2.06094C10.1992 1.86086 8.31526 2.18958 6.62801 3.00952C4.94076 3.82947 3.51823 5.10757 2.523 6.69774C1.52777 8.28791 1 10.126 1 12.0019C1 13.8779 1.52777 15.716 2.523 17.3061C3.51823 18.8963 4.94076 20.1744 6.62801 20.9944C8.31526 21.8143 10.1992 22.143 12.0644 21.9429C13.9296 21.7429 15.7009 21.022 17.1759 19.8629C15.9847 18.9279 15.0218 17.7341 14.3602 16.3719C13.6986 15.0098 13.3556 13.5149 13.3572 12.0006Z" fill="#EB001B"/>
<path d="M33.3533 12.0006C33.3532 13.8766 32.8253 15.7149 31.8299 17.3051C30.8345 18.8953 29.4118 20.1734 27.7243 20.9932C26.0368 21.813 24.1528 22.1416 22.2874 21.9412C20.4221 21.7408 18.6507 21.0197 17.1759 19.8601C18.3663 18.9246 19.3287 17.7309 19.9905 16.3692C20.6522 15.0075 20.9961 13.5132 20.9961 11.9992C20.9961 10.4852 20.6522 8.99091 19.9905 7.62917C19.3287 6.26743 18.3663 5.07377 17.1759 4.13824C18.6509 2.97858 20.4225 2.25738 22.2881 2.05712C24.1537 1.85685 26.038 2.1856 27.7256 3.00577C29.4131 3.82593 30.8358 5.10442 31.831 6.69506C32.8262 8.28569 33.3537 10.1243 33.3533 12.0006Z" fill="#F79E1B"/>
<path d="M32.3923 18.1911V17.8689H32.5228V17.805H32.1979V17.8717H32.3284V18.1938L32.3923 18.1911ZM33.0338 18.1911V17.8022H32.9477L32.8311 18.08L32.7144 17.8022H32.6117V18.1911H32.67V17.8994L32.7783 18.1522H32.8533L32.9616 17.8994V18.1938L33.0338 18.1911Z" fill="#F79E1B"/>
</g>
</svg>
