<svg width="24" height="24" viewBox="0 0 24 24" fill="none" xmlns="http://www.w3.org/2000/svg">
<mask id="mask0" mask-type="alpha" maskUnits="userSpaceOnUse" x="0" y="0" width="24" height="24">
<path d="M0 0H24V24H0V0Z" fill="#FD7C4B"/>
</mask>
<g mask="url(#mask0)">
<path d="M18.8941 16.8007C18.8941 16.7527 18.8941 16.7063 18.8941 16.6599C18.8345 16.3705 18.6996 16.102 18.503 15.8815C18.3063 15.661 18.055 15.4964 17.7743 15.4041C17.4048 15.2666 17.0129 15.193 16.637 15.073C16.0195 14.8746 15.3796 14.7163 14.7957 14.4427C13.9159 14.0316 13.7271 13.3901 14.1303 12.5103C14.2102 12.336 14.3014 12.168 14.3782 11.992C15.0501 10.4627 15.578 8.90946 15.4212 7.19301C15.2628 5.50375 14.0807 3.91847 11.8555 4.00325C10.291 4.06884 9.09129 4.95186 8.69457 6.47315C8.33144 7.86007 8.56179 9.2134 9.0273 10.5315C9.26885 11.2146 9.59198 11.8705 9.88312 12.5359C10.259 13.3933 10.0751 13.9756 9.24325 14.4235C8.91396 14.5915 8.56958 14.7281 8.21466 14.8315C7.64038 15.0058 7.0533 15.1322 6.47902 15.3114C5.83915 15.5017 5.26806 15.8424 5.14329 16.5463C5.12569 16.6407 5.1129 16.7367 5.1001 16.831C5.1001 17.2374 5.1001 17.9508 5.1001 18.6979C5.80395 19.4385 8.62258 20 12.0011 20C15.3796 20 18.2398 19.4321 18.9005 18.6755C18.8957 18.0484 18.8957 17.4213 18.8941 16.8007Z" fill="#FD7C4B"/>
</g>
</svg>
